simulation/qsim/TermProject.msim.vcd
$comment
	File created using the following command:
		vcd file TermProject.msim.vcd -direction
$end
$date
	Sat Jul 02 02:02:44 2022
$end
$version
	ModelSim Version 10.1d
$end
$timescale
	1ps
$end
$scope module vga_sync_vlg_vec_tst $end
$var reg 1 ! clk $end
$var reg 1 " reset $end
$var wire 1 # CLK $end
$var wire 1 $ hsync $end
$var wire 1 % video_on $end
$var wire 1 & vsync $end
$var wire 1 ' x [9] $end
$var wire 1 ( x [8] $end
$var wire 1 ) x [7] $end
$var wire 1 * x [6] $end
$var wire 1 + x [5] $end
$var wire 1 , x [4] $end
$var wire 1 - x [3] $end
$var wire 1 . x [2] $end
$var wire 1 / x [1] $end
$var wire 1 0 x [0] $end
$var wire 1 1 y [9] $end
$var wire 1 2 y [8] $end
$var wire 1 3 y [7] $end
$var wire 1 4 y [6] $end
$var wire 1 5 y [5] $end
$var wire 1 6 y [4] $end
$var wire 1 7 y [3] $end
$var wire 1 8 y [2] $end
$var wire 1 9 y [1] $end
$var wire 1 : y [0] $end
$var wire 1 ; sampler $end
$scope module i1 $end
$var wire 1 < gnd $end
$var wire 1 = vcc $end
$var wire 1 > unknown $end
$var tri1 1 ? devclrn $end
$var tri1 1 @ devpor $end
$var tri1 1 A devoe $end
$var wire 1 B hsync~output_o $end
$var wire 1 C vsync~output_o $end
$var wire 1 D video_on~output_o $end
$var wire 1 E CLK~output_o $end
$var wire 1 F x[0]~output_o $end
$var wire 1 G x[1]~output_o $end
$var wire 1 H x[2]~output_o $end
$var wire 1 I x[3]~output_o $end
$var wire 1 J x[4]~output_o $end
$var wire 1 K x[5]~output_o $end
$var wire 1 L x[6]~output_o $end
$var wire 1 M x[7]~output_o $end
$var wire 1 N x[8]~output_o $end
$var wire 1 O x[9]~output_o $end
$var wire 1 P y[0]~output_o $end
$var wire 1 Q y[1]~output_o $end
$var wire 1 R y[2]~output_o $end
$var wire 1 S y[3]~output_o $end
$var wire 1 T y[4]~output_o $end
$var wire 1 U y[5]~output_o $end
$var wire 1 V y[6]~output_o $end
$var wire 1 W y[7]~output_o $end
$var wire 1 X y[8]~output_o $end
$var wire 1 Y y[9]~output_o $end
$var wire 1 Z clk~input_o $end
$var wire 1 [ freq_downgrade|DOWNCOUNTER~0_combout $end
$var wire 1 \ freq_downgrade|DOWNCOUNTER~q $end
$var wire 1 ] Add0~25_sumout $end
$var wire 1 ^ reset~input_o $end
$var wire 1 _ Add0~26 $end
$var wire 1 ` Add0~29_sumout $end
$var wire 1 a Add0~30 $end
$var wire 1 b Add0~33_sumout $end
$var wire 1 c Add0~34 $end
$var wire 1 d Add0~37_sumout $end
$var wire 1 e Add0~38 $end
$var wire 1 f Add0~13_sumout $end
$var wire 1 g Equal0~1_combout $end
$var wire 1 h Add0~14 $end
$var wire 1 i Add0~21_sumout $end
$var wire 1 j h_count_reg~2_combout $end
$var wire 1 k Add0~22 $end
$var wire 1 l Add0~17_sumout $end
$var wire 1 m Add0~18 $end
$var wire 1 n Add0~9_sumout $end
$var wire 1 o Equal0~0_combout $end
$var wire 1 p Add0~10 $end
$var wire 1 q Add0~5_sumout $end
$var wire 1 r h_count_reg~1_combout $end
$var wire 1 s Add0~6 $end
$var wire 1 t Add0~1_sumout $end
$var wire 1 u h_count_reg~0_combout $end
$var wire 1 v hsync~0_combout $end
$var wire 1 w Add1~13_sumout $end
$var wire 1 x Add1~2 $end
$var wire 1 y Add1~37_sumout $end
$var wire 1 z Equal1~1_combout $end
$var wire 1 { Equal1~2_combout $end
$var wire 1 | Equal1~0_combout $end
$var wire 1 } Add1~38 $end
$var wire 1 ~ Add1~33_sumout $end
$var wire 1 !! Add1~34 $end
$var wire 1 "! Add1~29_sumout $end
$var wire 1 #! Add1~30 $end
$var wire 1 $! Add1~25_sumout $end
$var wire 1 %! Add1~26 $end
$var wire 1 &! Add1~21_sumout $end
$var wire 1 '! Add1~22 $end
$var wire 1 (! Add1~17_sumout $end
$var wire 1 )! Equal2~0_combout $end
$var wire 1 *! Equal2~1_combout $end
$var wire 1 +! Add1~14 $end
$var wire 1 ,! Add1~9_sumout $end
$var wire 1 -! Add1~10 $end
$var wire 1 .! Add1~5_sumout $end
$var wire 1 /! Add1~6 $end
$var wire 1 0! Add1~1_sumout $end
$var wire 1 1! vsync~0_combout $end
$var wire 1 2! LessThan1~0_combout $end
$var wire 1 3! video_on~0_combout $end
$var wire 1 4! h_count_reg [9] $end
$var wire 1 5! h_count_reg [8] $end
$var wire 1 6! h_count_reg [7] $end
$var wire 1 7! h_count_reg [6] $end
$var wire 1 8! h_count_reg [5] $end
$var wire 1 9! h_count_reg [4] $end
$var wire 1 :! h_count_reg [3] $end
$var wire 1 ;! h_count_reg [2] $end
$var wire 1 <! h_count_reg [1] $end
$var wire 1 =! h_count_reg [0] $end
$var wire 1 >! v_count_reg [9] $end
$var wire 1 ?! v_count_reg [8] $end
$var wire 1 @! v_count_reg [7] $end
$var wire 1 A! v_count_reg [6] $end
$var wire 1 B! v_count_reg [5] $end
$var wire 1 C! v_count_reg [4] $end
$var wire 1 D! v_count_reg [3] $end
$var wire 1 E! v_count_reg [2] $end
$var wire 1 F! v_count_reg [1] $end
$var wire 1 G! v_count_reg [0] $end
$upscope $end
$upscope $end
$enddefinitions $end
#0
$dumpvars
0!
0"
0#
1$
1%
1&
00
0/
0.
0-
0,
0+
0*
0)
0(
0'
0:
09
08
07
06
05
04
03
02
01
x;
0<
1=
x>
1?
1@
1A
1B
1C
1D
0E
0F
0G
0H
0I
0J
0K
0L
0M
0N
0O
0P
0Q
0R
0S
0T
0U
0V
0W
0X
0Y
0Z
1[
0\
1]
0^
0_
0`
0a
0b
0c
0d
0e
0f
0g
0h
0i
0j
0k
0l
0m
0n
0o
0p
0q
0r
0s
0t
0u
1v
1w
0x
0y
0z
0{
0|
0}
0~
0!!
0"!
0#!
0$!
0%!
0&!
0'!
0(!
0)!
0*!
0+!
0,!
0-!
0.!
0/!
00!
11!
02!
13!
0=!
0<!
0;!
0:!
09!
08!
07!
06!
05!
04!
0G!
0F!
0E!
0D!
0C!
0B!
0A!
0@!
0?!
0>!
$end
#10000
1!
1Z
0;
1\
0[
1E
1#
1=!
1_
0]
1F
10
1`
#20000
0!
0Z
1;
#30000
1!
1Z
0;
0\
1[
0E
0#
#40000
0!
0Z
1;
#50000
1!
1Z
0;
1\
0[
1E
1#
1<!
0=!
1a
0`
0_
1]
1G
0F
1/
00
1b
0a
1`
0b
#60000
0!
0Z
1;
#70000
1!
1Z
0;
0\
1[
0E
0#
#80000
0!
0Z
1;
#90000
1!
1Z
0;
1\
0[
1E
1#
1=!
1_
0]
1F
10
1a
0`
1b
#100000
0!
0Z
1;
#110000
1!
1Z
0;
0\
1[
0E
0#
#120000
0!
0Z
1;
#130000
1!
1Z
0;
1\
0[
1E
1#
1;!
0<!
0=!
1c
0b
0a
1`
0_
1]
1H
0G
0F
1.
0/
00
1d
0c
1b
0`
0d
1z
0z
#140000
0!
0Z
1;
#150000
1!
1Z
0;
0\
1[
0E
0#
#160000
0!
0Z
1;
#170000
1!
1Z
0;
1\
0[
1E
1#
1=!
1_
0]
1F
10
1`
#180000
0!
0Z
1;
#190000
1!
1Z
0;
0\
1[
0E
0#
#200000
0!
0Z
1;
#210000
1!
1Z
0;
1\
0[
1E
1#
1<!
0=!
1a
0`
1g
0_
1]
1G
0F
1/
00
1c
0b
0a
1`
1d
0c
1b
0d
1z
0z
#220000
0!
0Z
1;
#230000
1!
1Z
0;
0\
1[
0E
0#
#240000
0!
0Z
1;
#250000
1!
1Z
0;
1\
0[
1E
1#
1=!
1_
0]
1F
10
1a
0`
1c
0b
1d
#260000
0!
0Z
1;
#270000
1!
1Z
0;
0\
1[
0E
0#
#280000
0!
0Z
1;
#290000
1!
1Z
0;
1\
0[
1E
1#
1:!
0;!
0<!
0=!
1e
0d
0c
1b
0g
0a
1`
0_
1]
1I
0H
0G
0F
1-
0.
0/
00
1f
0e
1d
0b
0`
0f
1z
#300000
0!
0Z
1;
#310000
1!
1Z
0;
0\
1[
0E
0#
#320000
0!
0Z
1;
#330000
1!
1Z
0;
1\
0[
1E
1#
1=!
1_
0]
1F
10
1`
0z
#340000
0!
0Z
1;
#350000
1!
1Z
0;
0\
1[
0E
0#
#360000
0!
0Z
1;
#370000
1!
1Z
0;
1\
0[
1E
1#
1<!
0=!
1a
0`
0_
1]
1G
0F
1/
00
1b
0a
1`
1z
0b
#380000
0!
0Z
1;
#390000
1!
1Z
0;
0\
1[
0E
0#
#400000
0!
0Z
1;
#410000
1!
1Z
0;
1\
0[
1E
1#
1=!
1_
0]
1F
10
1a
0`
0z
1b
#420000
0!
0Z
1;
#430000
1!
1Z
0;
0\
1[
0E
0#
#440000
0!
0Z
1;
#450000
1!
1Z
0;
1\
0[
1E
1#
1;!
0<!
0=!
1c
0b
0a
1`
0_
1]
1H
0G
0F
1.
0/
00
1e
0d
0c
1b
0`
1z
1f
0e
1d
0z
0f
1z
#460000
0!
0Z
1;
#470000
1!
1Z
0;
0\
1[
0E
0#
#480000
0!
0Z
1;
#490000
1!
1Z
0;
1\
0[
1E
1#
1=!
1_
0]
1F
10
1`
0z
#500000
0!
0Z
1;
#510000
1!
1Z
0;
0\
1[
0E
0#
#520000
0!
0Z
1;
#530000
1!
1Z
0;
1\
0[
1E
1#
1<!
0=!
1a
0`
1g
0_
1]
1G
0F
1/
00
1c
0b
0a
1`
1z
1e
0d
0c
1b
1f
0e
1d
0z
0f
1{
1z
0{
#540000
0!
0Z
1;
#550000
1!
1Z
0;
0\
1[
0E
0#
#560000
0!
0Z
1;
#570000
1!
1Z
0;
1\
0[
1E
1#
1=!
1_
0]
1F
10
1a
0`
0z
1c
0b
1e
0d
1f
#580000
0!
0Z
1;
#590000
1!
1Z
0;
0\
1[
0E
0#
#600000
0!
0Z
1;
#610000
1!
1Z
0;
1\
0[
1E
1#
19!
0:!
0;!
0<!
0=!
1h
0f
0e
1d
0c
1b
0g
0a
1`
0_
1]
1J
0I
0H
0G
0F
1,
0-
0.
0/
00
1i
0h
1f
0d
0b
0`
1z
0i
1j
0z
0j
#620000
0!
0Z
1;
#630000
1!
1Z
0;
0\
1[
0E
0#
#640000
0!
0Z
1;
#650000
1!
1Z
0;
1\
0[
1E
1#
1=!
1_
0]
1F
10
1`
#660000
0!
0Z
1;
#670000
1!
1Z
0;
0\
1[
0E
0#
#680000
0!
0Z
1;
#690000
1!
1Z
0;
1\
0[
1E
1#
1<!
0=!
1a
0`
0_
1]
1G
0F
1/
00
1b
0a
1`
0b
1{
0{
#700000
0!
0Z
1;
#710000
1!
1Z
0;
0\
1[
0E
0#
#720000
0!
0Z
1;
#730000
1!
1Z
0;
1\
0[
1E
1#
1=!
1_
0]
1F
10
1a
0`
1b
#740000
0!
0Z
1;
#750000
1!
1Z
0;
0\
1[
0E
0#
#760000
0!
0Z
1;
#770000
1!
1Z
0;
1\
0[
1E
1#
1;!
0<!
0=!
1c
0b
0a
1`
0_
1]
1H
0G
0F
1.
0/
00
1d
0c
1b
0`
0d
1z
0z
#780000
0!
0Z
1;
#790000
1!
1Z
0;
0\
1[
0E
0#
#800000
0!
0Z
1;
#810000
1!
1Z
0;
1\
0[
1E
1#
1=!
1_
0]
1F
10
1`
1{
#820000
0!
0Z
1;
#830000
1!
1Z
0;
0\
1[
0E
0#
#840000
0!
0Z
1;
#850000
1!
1Z
0;
1\
0[
1E
1#
1<!
0=!
1a
0`
1g
0_
1]
1G
0F
1/
00
1c
0b
0a
1`
0{
1d
0c
1b
0d
1z
1{
0z
#860000
0!
0Z
1;
#870000
1!
1Z
0;
0\
1[
0E
0#
#880000
0!
0Z
1;
#890000
1!
1Z
0;
1\
0[
1E
1#
1=!
1_
0]
1F
10
1a
0`
1c
0b
0{
1d
#900000
0!
0Z
1;
#910000
1!
1Z
0;
0\
1[
0E
0#
#920000
0!
0Z
1;
#930000
1!
1Z
0;
1\
0[
1E
1#
1:!
0;!
0<!
0=!
1e
0d
0c
1b
0g
0a
1`
0_
1]
1I
0H
0G
0F
1-
0.
0/
00
1h
0f
0e
1d
0b
0`
1{
1i
0h
1f
0{
1z
0i
1j
0j
#940000
0!
0Z
1;
#950000
1!
1Z
0;
0\
1[
0E
0#
#960000
0!
0Z
1;
#970000
1!
1Z
0;
1\
0[
1E
1#
1=!
1_
0]
1F
10
1`
0z
#980000
0!
0Z
1;
#990000
1!
1Z
0;
0\
1[
0E
0#
#1000000
0!
0Z
1;
#1010000
1!
1Z
0;
1\
0[
1E
1#
1<!
0=!
1a
0`
0_
1]
1G
0F
1/
00
1b
0a
1`
1z
0b
1{
0{
#1020000
0!
0Z
1;
#1030000
1!
1Z
0;
0\
1[
0E
0#
#1040000
0!
0Z
1;
#1050000
1!
1Z
0;
1\
0[
1E
1#
1=!
1_
0]
1F
10
1a
0`
0z
1b
#1060000
0!
0Z
1;
#1070000
1!
1Z
0;
0\
1[
0E
0#
#1080000
0!
0Z
1;
#1090000
1!
1Z
0;
1\
0[
1E
1#
1;!
0<!
0=!
1c
0b
0a
1`
0_
1]
1H
0G
0F
1.
0/
00
1e
0d
0c
1b
0`
1z
1h
0f
0e
1d
0z
1i
0h
1f
1z
0i
1j
0j
#1100000
0!
0Z
1;
#1110000
1!
1Z
0;
0\
1[
0E
0#
#1120000
0!
0Z
1;
#1130000
1!
1Z
0;
1\
0[
1E
1#
1=!
1_
0]
1F
10
1`
0z
1{
#1140000
0!
0Z
1;
#1150000
1!
1Z
0;
0\
1[
0E
0#
#1160000
0!
0Z
1;
#1170000
1!
1Z
0;
1\
0[
1E
1#
1<!
0=!
1a
0`
1g
0_
1]
1G
0F
1/
00
1c
0b
0a
1`
0{
1z
1e
0d
0c
1b
1h
0f
0e
1d
0z
1{
1i
0h
1f
0{
1z
0i
1j
0j
1{
#1180000
0!
0Z
1;
#1190000
1!
1Z
0;
0\
1[
0E
0#
#1200000
0!
0Z
1;
#1210000
1!
1Z
0;
1\
0[
1E
1#
1=!
1_
0]
1F
10
1a
0`
0z
1c
0b
0{
1e
0d
1h
0f
1i
1j
#1220000
0!
0Z
1;
#1230000
1!
1Z
0;
0\
1[
0E
0#
#1240000
0!
0Z
1;
#1250000
1!
1Z
0;
1\
0[
1E
1#
18!
09!
0:!
0;!
0<!
0=!
0g
1k
0i
0h
1f
0e
1d
0c
1b
0a
1`
0_
1]
1K
0J
0I
0H
0G
0F
1+
0,
0-
0.
0/
00
1l
0k
1i
0f
0d
0b
0`
0j
1z
1{
0l
1j
0{
0z
#1260000
0!
0Z
1;
#1270000
1!
1Z
0;
0\
1[
0E
0#
#1280000
0!
0Z
1;
#1290000
1!
1Z
0;
1\
0[
1E
1#
1=!
1_
0]
1F
10
1`
#1300000
0!
0Z
1;
#1310000
1!
1Z
0;
0\
1[
0E
0#
#1320000
0!
0Z
1;
#1330000
1!
1Z
0;
1\
0[
1E
1#
1<!
0=!
1a
0`
0_
1]
1G
0F
1/
00
1b
0a
1`
0b
#1340000
0!
0Z
1;
#1350000
1!
1Z
0;
0\
1[
0E
0#
#1360000
0!
0Z
1;
#1370000
1!
1Z
0;
1\
0[
1E
1#
1=!
1_
0]
1F
10
1a
0`
1b
#1380000
0!
0Z
1;
#1390000
1!
1Z
0;
0\
1[
0E
0#
#1400000
0!
0Z
1;
#1410000
1!
1Z
0;
1\
0[
1E
1#
1;!
0<!
0=!
1c
0b
0a
1`
0_
1]
1H
0G
0F
1.
0/
00
1d
0c
1b
0`
0d
1z
0z
#1420000
0!
0Z
1;
#1430000
1!
1Z
0;
0\
1[
0E
0#
#1440000
0!
0Z
1;
#1450000
1!
1Z
0;
1\
0[
1E
1#
1=!
1_
0]
1F
10
1`
#1460000
0!
0Z
1;
#1470000
1!
1Z
0;
0\
1[
0E
0#
#1480000
0!
0Z
1;
#1490000
1!
1Z
0;
1\
0[
1E
1#
1<!
0=!
1a
0`
0_
1]
1G
0F
1/
00
1c
0b
0a
1`
1d
0c
1b
0d
1z
0z
#1500000
0!
0Z
1;
#1510000
1!
1Z
0;
0\
1[
0E
0#
#1520000
0!
0Z
1;
#1530000
1!
1Z
0;
1\
0[
1E
1#
1=!
1_
0]
1F
10
1a
0`
1c
0b
1d
#1540000
0!
0Z
1;
#1550000
1!
1Z
0;
0\
1[
0E
0#
#1560000
0!
0Z
1;
#1570000
1!
1Z
0;
1\
0[
1E
1#
1:!
0;!
0<!
0=!
1e
0d
0c
1b
0a
1`
0_
1]
1I
0H
0G
0F
1-
0.
0/
00
1f
0e
1d
0b
0`
0f
1z
#1580000
0!
0Z
1;
#1590000
1!
1Z
0;
0\
1[
0E
0#
#1600000
0!
0Z
1;
#1610000
1!
1Z
0;
1\
0[
1E
1#
1=!
1_
0]
1F
10
1`
0z
#1620000
0!
0Z
1;
#1630000
1!
1Z
0;
0\
1[
0E
0#
#1640000
0!
0Z
1;
#1650000
1!
1Z
0;
1\
0[
1E
1#
1<!
0=!
1a
0`
0_
1]
1G
0F
1/
00
1b
0a
1`
1z
0b
#1660000
0!
0Z
1;
#1670000
1!
1Z
0;
0\
1[
0E
0#
#1680000
0!
0Z
1;
#1690000
1!
1Z
0;
1\
0[
1E
1#
1=!
1_
0]
1F
10
1a
0`
0z
1b
#1700000
0!
0Z
1;
#1710000
1!
1Z
0;
0\
1[
0E
0#
#1720000
0!
0Z
1;
#1730000
1!
1Z
0;
1\
0[
1E
1#
1;!
0<!
0=!
1c
0b
0a
1`
0_
1]
1H
0G
0F
1.
0/
00
1e
0d
0c
1b
0`
1z
1f
0e
1d
0z
0f
1z
#1740000
0!
0Z
1;
#1750000
1!
1Z
0;
0\
1[
0E
0#
#1760000
0!
0Z
1;
#1770000
1!
1Z
0;
1\
0[
1E
1#
1=!
1_
0]
1F
10
1`
0z
#1780000
0!
0Z
1;
#1790000
1!
1Z
0;
0\
1[
0E
0#
#1800000
0!
0Z
1;
#1810000
1!
1Z
0;
1\
0[
1E
1#
1<!
0=!
1a
0`
0_
1]
1G
0F
1/
00
1c
0b
0a
1`
1z
1e
0d
0c
1b
1f
0e
1d
0z
0f
1z
#1820000
0!
0Z
1;
#1830000
1!
1Z
0;
0\
1[
0E
0#
#1840000
0!
0Z
1;
#1850000
1!
1Z
0;
1\
0[
1E
1#
1=!
1_
0]
1F
10
1a
0`
0z
1c
0b
1e
0d
1f
#1860000
0!
0Z
1;
#1870000
1!
1Z
0;
0\
1[
0E
0#
#1880000
0!
0Z
1;
#1890000
1!
1Z
0;
1\
0[
1E
1#
19!
0:!
0;!
0<!
0=!
1h
0f
0e
1d
0c
1b
0a
1`
0_
1]
1J
0I
0H
0G
0F
1,
0-
0.
0/
00
1k
0i
0h
1f
0d
0b
0`
1z
1l
0k
1i
0j
0z
0l
1j
#1900000
0!
0Z
1;
#1910000
1!
1Z
0;
0\
1[
0E
0#
#1920000
0!
0Z
1;
#1930000
1!
1Z
0;
1\
0[
1E
1#
1=!
1_
0]
1F
10
1`
#1940000
0!
0Z
1;
#1950000
1!
1Z
0;
0\
1[
0E
0#
#1960000
0!
0Z
1;
#1970000
1!
1Z
0;
1\
0[
1E
1#
1<!
0=!
1a
0`
0_
1]
1G
0F
1/
00
1b
0a
1`
0b
#1980000
0!
0Z
1;
#1990000
1!
1Z
0;
0\
1[
0E
0#
#2000000
0!
0Z
1;
#2010000
1!
1Z
0;
1\
0[
1E
1#
1=!
1_
0]
1F
10
1a
0`
1b
#2020000
0!
0Z
1;
#2030000
1!
1Z
0;
0\
1[
0E
0#
#2040000
0!
0Z
1;
#2050000
1!
1Z
0;
1\
0[
1E
1#
1;!
0<!
0=!
1c
0b
0a
1`
0_
1]
1H
0G
0F
1.
0/
00
1d
0c
1b
0`
0d
1z
0z
#2060000
0!
0Z
1;
#2070000
1!
1Z
0;
0\
1[
0E
0#
#2080000
0!
0Z
1;
#2090000
1!
1Z
0;
1\
0[
1E
1#
1=!
1_
0]
1F
10
1`
#2100000
0!
0Z
1;
#2110000
1!
1Z
0;
0\
1[
0E
0#
#2120000
0!
0Z
1;
#2130000
1!
1Z
0;
1\
0[
1E
1#
1<!
0=!
1a
0`
0_
1]
1G
0F
1/
00
1c
0b
0a
1`
1d
0c
1b
0d
1z
0z
#2140000
0!
0Z
1;
#2150000
1!
1Z
0;
0\
1[
0E
0#
#2160000
0!
0Z
1;
#2170000
1!
1Z
0;
1\
0[
1E
1#
1=!
1_
0]
1F
10
1a
0`
1c
0b
1d
#2180000
0!
0Z
1;
#2190000
1!
1Z
0;
0\
1[
0E
0#
#2200000
0!
0Z
1;
#2210000
1!
1Z
0;
1\
0[
1E
1#
1:!
0;!
0<!
0=!
1e
0d
0c
1b
0a
1`
0_
1]
1I
0H
0G
0F
1-
0.
0/
00
1h
0f
0e
1d
0b
0`
1k
0i
0h
1f
1z
1l
0k
1i
0j
0l
1j
#2220000
0!
0Z
1;
#2230000
1!
1Z
0;
0\
1[
0E
0#
#2240000
0!
0Z
1;
#2250000
1!
1Z
0;
1\
0[
1E
1#
1=!
1_
0]
1F
10
1`
0z
#2260000
0!
0Z
1;
#2270000
1!
1Z
0;
0\
1[
0E
0#
#2280000
0!
0Z
1;
#2290000
1!
1Z
0;
1\
0[
1E
1#
1<!
0=!
1a
0`
0_
1]
1G
0F
1/
00
1b
0a
1`
1z
0b
#2300000
0!
0Z
1;
#2310000
1!
1Z
0;
0\
1[
0E
0#
#2320000
0!
0Z
1;
#2330000
1!
1Z
0;
1\
0[
1E
1#
1=!
1_
0]
1F
10
1a
0`
0z
1b
#2340000
0!
0Z
1;
#2350000
1!
1Z
0;
0\
1[
0E
0#
#2360000
0!
0Z
1;
#2370000
1!
1Z
0;
1\
0[
1E
1#
1;!
0<!
0=!
1c
0b
0a
1`
0_
1]
1H
0G
0F
1.
0/
00
1e
0d
0c
1b
0`
1z
1h
0f
0e
1d
0z
1k
0i
0h
1f
1z
1l
0k
1i
0j
0l
1j
#2380000
0!
0Z
1;
#2390000
1!
1Z
0;
0\
1[
0E
0#
#2400000
0!
0Z
1;
#2410000
1!
1Z
0;
1\
0[
1E
1#
1=!
1_
0]
1F
10
1`
0z
#2420000
0!
0Z
1;
#2430000
1!
1Z
0;
0\
1[
0E
0#
#2440000
0!
0Z
1;
#2450000
1!
1Z
0;
1\
0[
1E
1#
1<!
0=!
1a
0`
0_
1]
1G
0F
1/
00
1c
0b
0a
1`
1z
1e
0d
0c
1b
1h
0f
0e
1d
0z
1k
0i
0h
1f
1z
1l
0k
1i
0j
1{
0l
1j
0{
#2460000
0!
0Z
1;
#2470000
1!
1Z
0;
0\
1[
0E
0#
#2480000
0!
0Z
1;
#2490000
1!
1Z
0;
1\
0[
1E
1#
1=!
1_
0]
1F
10
1a
0`
0z
1c
0b
1e
0d
1h
0f
1k
0i
1l
0j
#2500000
0!
0Z
1;
#2510000
1!
1Z
0;
0\
1[
0E
0#
#2520000
0!
0Z
1;
#2530000
1!
1Z
0;
1\
0[
1E
1#
17!
08!
09!
0:!
0;!
0<!
0=!
1m
0l
0k
1i
0h
1f
0e
1d
0c
1b
0a
1`
0_
1]
1L
0K
0J
0I
0H
0G
0F
1*
0+
0,
0-
0.
0/
00
1n
0m
1l
0i
0f
0d
0b
0`
1j
1z
0n
0j
0z
#2540000
0!
0Z
1;
#2550000
1!
1Z
0;
0\
1[
0E
0#
#2560000
0!
0Z
1;
#2570000
1!
1Z
0;
1\
0[
1E
1#
1=!
1_
0]
1F
10
1`
#2580000
0!
0Z
1;
#2590000
1!
1Z
0;
0\
1[
0E
0#
#2600000
0!
0Z
1;
#2610000
1!
1Z
0;
1\
0[
1E
1#
1<!
0=!
1a
0`
0_
1]
1G
0F
1/
00
1b
0a
1`
0b
#2620000
0!
0Z
1;
#2630000
1!
1Z
0;
0\
1[
0E
0#
#2640000
0!
0Z
1;
#2650000
1!
1Z
0;
1\
0[
1E
1#
1=!
1_
0]
1F
10
1a
0`
1b
#2660000
0!
0Z
1;
#2670000
1!
1Z
0;
0\
1[
0E
0#
#2680000
0!
0Z
1;
#2690000
1!
1Z
0;
1\
0[
1E
1#
1;!
0<!
0=!
1c
0b
0a
1`
0_
1]
1H
0G
0F
1.
0/
00
1d
0c
1b
0`
0d
1z
0z
#2700000
0!
0Z
1;
#2710000
1!
1Z
0;
0\
1[
0E
0#
#2720000
0!
0Z
1;
#2730000
1!
1Z
0;
1\
0[
1E
1#
1=!
1_
0]
1F
10
1`
#2740000
0!
0Z
1;
#2750000
1!
1Z
0;
0\
1[
0E
0#
#2760000
0!
0Z
1;
#2770000
1!
1Z
0;
1\
0[
1E
1#
1<!
0=!
1a
0`
0_
1]
1G
0F
1/
00
1c
0b
0a
1`
1d
0c
1b
0d
1z
0z
#2780000
0!
0Z
1;
#2790000
1!
1Z
0;
0\
1[
0E
0#
#2800000
0!
0Z
1;
#2810000
1!
1Z
0;
1\
0[
1E
1#
1=!
1_
0]
1F
10
1a
0`
1c
0b
1d
#2820000
0!
0Z
1;
#2830000
1!
1Z
0;
0\
1[
0E
0#
#2840000
0!
0Z
1;
#2850000
1!
1Z
0;
1\
0[
1E
1#
1:!
0;!
0<!
0=!
1e
0d
0c
1b
0a
1`
0_
1]
1I
0H
0G
0F
1-
0.
0/
00
1f
0e
1d
0b
0`
0f
1z
#2860000
0!
0Z
1;
#2870000
1!
1Z
0;
0\
1[
0E
0#
#2880000
0!
0Z
1;
#2890000
1!
1Z
0;
1\
0[
1E
1#
1=!
1_
0]
1F
10
1`
0z
#2900000
0!
0Z
1;
#2910000
1!
1Z
0;
0\
1[
0E
0#
#2920000
0!
0Z
1;
#2930000
1!
1Z
0;
1\
0[
1E
1#
1<!
0=!
1a
0`
0_
1]
1G
0F
1/
00
1b
0a
1`
1z
0b
#2940000
0!
0Z
1;
#2950000
1!
1Z
0;
0\
1[
0E
0#
#2960000
0!
0Z
1;
#2970000
1!
1Z
0;
1\
0[
1E
1#
1=!
1_
0]
1F
10
1a
0`
0z
1b
#2980000
0!
0Z
1;
#2990000
1!
1Z
0;
0\
1[
0E
0#
#3000000
0!
0Z
1;
#3010000
1!
1Z
0;
1\
0[
1E
1#
1;!
0<!
0=!
1c
0b
0a
1`
0_
1]
1H
0G
0F
1.
0/
00
1e
0d
0c
1b
0`
1z
1f
0e
1d
0z
0f
1z
#3020000
0!
0Z
1;
#3030000
1!
1Z
0;
0\
1[
0E
0#
#3040000
0!
0Z
1;
#3050000
1!
1Z
0;
1\
0[
1E
1#
1=!
1_
0]
1F
10
1`
0z
#3060000
0!
0Z
1;
#3070000
1!
1Z
0;
0\
1[
0E
0#
#3080000
0!
0Z
1;
#3090000
1!
1Z
0;
1\
0[
1E
1#
1<!
0=!
1a
0`
0_
1]
1G
0F
1/
00
1c
0b
0a
1`
1z
1e
0d
0c
1b
1f
0e
1d
0z
0f
1{
1z
0{
#3100000
0!
0Z
1;
#3110000
1!
1Z
0;
0\
1[
0E
0#
#3120000
0!
0Z
1;
#3130000
1!
1Z
0;
1\
0[
1E
1#
1=!
1_
0]
1F
10
1a
0`
0z
1c
0b
1e
0d
1f
#3140000
0!
0Z
1;
#3150000
1!
1Z
0;
0\
1[
0E
0#
#3160000
0!
0Z
1;
#3170000
1!
1Z
0;
1\
0[
1E
1#
19!
0:!
0;!
0<!
0=!
1h
0f
0e
1d
0c
1b
0a
1`
0_
1]
1J
0I
0H
0G
0F
1,
0-
0.
0/
00
1i
0h
1f
0d
0b
0`
1z
0i
1j
0z
0j
#3180000
0!
0Z
1;
#3190000
1!
1Z
0;
0\
1[
0E
0#
#3200000
0!
0Z
1;
#3210000
1!
1Z
0;
1\
0[
1E
1#
1=!
1_
0]
1F
10
1`
#3220000
0!
0Z
1;
#3230000
1!
1Z
0;
0\
1[
0E
0#
#3240000
0!
0Z
1;
#3250000
1!
1Z
0;
1\
0[
1E
1#
1<!
0=!
1a
0`
0_
1]
1G
0F
1/
00
1b
0a
1`
0b
1{
0{
#3260000
0!
0Z
1;
#3270000
1!
1Z
0;
0\
1[
0E
0#
#3280000
0!
0Z
1;
#3290000
1!
1Z
0;
1\
0[
1E
1#
1=!
1_
0]
1F
10
1a
0`
1b
#3300000
0!
0Z
1;
#3310000
1!
1Z
0;
0\
1[
0E
0#
#3320000
0!
0Z
1;
#3330000
1!
1Z
0;
1\
0[
1E
1#
1;!
0<!
0=!
1c
0b
0a
1`
0_
1]
1H
0G
0F
1.
0/
00
1d
0c
1b
0`
0d
1z
0z
#3340000
0!
0Z
1;
#3350000
1!
1Z
0;
0\
1[
0E
0#
#3360000
0!
0Z
1;
#3370000
1!
1Z
0;
1\
0[
1E
1#
1=!
1_
0]
1F
10
1`
1{
#3380000
0!
0Z
1;
#3390000
1!
1Z
0;
0\
1[
0E
0#
#3400000
0!
0Z
1;
#3410000
1!
1Z
0;
1\
0[
1E
1#
1<!
0=!
1a
0`
0_
1]
1G
0F
1/
00
1c
0b
0a
1`
0{
1d
0c
1b
0d
1z
1{
0z
#3420000
0!
0Z
1;
#3430000
1!
1Z
0;
0\
1[
0E
0#
#3440000
0!
0Z
1;
#3450000
1!
1Z
0;
1\
0[
1E
1#
1=!
1_
0]
1F
10
1a
0`
1c
0b
0{
1d
#3460000
0!
0Z
1;
#3470000
1!
1Z
0;
0\
1[
0E
0#
#3480000
0!
0Z
1;
#3490000
1!
1Z
0;
1\
0[
1E
1#
1:!
0;!
0<!
0=!
1e
0d
0c
1b
0a
1`
0_
1]
1I
0H
0G
0F
1-
0.
0/
00
1h
0f
0e
1d
0b
0`
1{
1i
0h
1f
0{
1z
0i
1j
0j
#3500000
0!
0Z
1;
#3510000
1!
1Z
0;
0\
1[
0E
0#
#3520000
0!
0Z
1;
